<?xml version="1.0" encoding="UTF-8"?>
<!-- Do not edit this file with editors other than draw.io -->
<!DOCTYPE svg PUBLIC "-//W3C//DTD SVG 1.1//EN" "http://www.w3.org/Graphics/SVG/1.1/DTD/svg11.dtd">
<svg xmlns="http://www.w3.org/2000/svg" xmlns:xlink="http://www.w3.org/1999/xlink" version="1.1" width="1071px" height="750px" viewBox="-0.5 -0.5 1071 750" content="&lt;mxfile host=&quot;app.diagrams.net&quot; agent=&quot;Mozilla/5.0 (Windows NT 10.0; Win64; x64) AppleWebKit/537.36 (KHTML, like Gecko) Chrome/127.0.0.0 Safari/537.36&quot; version=&quot;24.7.7&quot;&gt;&#10;  &lt;diagram name=&quot;Page-1&quot; id=&quot;54c02804-9d69-ba3f-8aca-1021b27b8050&quot;&gt;&#10;    &lt;mxGraphModel dx=&quot;1408&quot; dy=&quot;748&quot; grid=&quot;1&quot; gridSize=&quot;10&quot; guides=&quot;1&quot; tooltips=&quot;1&quot; connect=&quot;1&quot; arrows=&quot;1&quot; fold=&quot;1&quot; page=&quot;1&quot; pageScale=&quot;1&quot; pageWidth=&quot;1100&quot; pageHeight=&quot;850&quot; background=&quot;none&quot; math=&quot;0&quot; shadow=&quot;0&quot;&gt;&#10;      &lt;root&gt;&#10;        &lt;mxCell id=&quot;0&quot; /&gt;&#10;        &lt;mxCell id=&quot;1&quot; parent=&quot;0&quot; /&gt;&#10;        &lt;mxCell id=&quot;7c3a617817c5cf35-16&quot; value=&quot;&quot; style=&quot;html=1;shadow=0;dashed=0;align=center;verticalAlign=middle;shape=mxgraph.arrows2.arrow;dy=0.6;dx=40;direction=north;notch=0;strokeWidth=2;fillColor=#CCCCCC;fontSize=14;fontColor=#000000;strokeColor=none;&quot; parent=&quot;1&quot; vertex=&quot;1&quot;&gt;&#10;          &lt;mxGeometry x=&quot;73&quot; y=&quot;595&quot; width=&quot;160&quot; height=&quot;60&quot; as=&quot;geometry&quot; /&gt;&#10;        &lt;/mxCell&gt;&#10;        &lt;mxCell id=&quot;7c3a617817c5cf35-4&quot; value=&quot;2017&quot; style=&quot;verticalLabelPosition=bottom;verticalAlign=top;html=1;shape=mxgraph.infographic.shadedCube;isoAngle=15;fillColor=#10739E;strokeColor=none;fontFamily=Helvetica;fontSize=20;align=center;strokeWidth=2;&quot; parent=&quot;1&quot; vertex=&quot;1&quot;&gt;&#10;          &lt;mxGeometry x=&quot;93&quot; y=&quot;445&quot; width=&quot;120&quot; height=&quot;110&quot; as=&quot;geometry&quot; /&gt;&#10;        &lt;/mxCell&gt;&#10;        &lt;mxCell id=&quot;7c3a617817c5cf35-7&quot; value=&quot;2018&quot; style=&quot;verticalLabelPosition=bottom;verticalAlign=top;html=1;shape=mxgraph.infographic.shadedCube;isoAngle=15;fillColor=#F2931E;strokeColor=none;fontFamily=Helvetica;fontSize=20;align=center;strokeWidth=2;&quot; parent=&quot;1&quot; vertex=&quot;1&quot;&gt;&#10;          &lt;mxGeometry x=&quot;293&quot; y=&quot;415&quot; width=&quot;120&quot; height=&quot;140&quot; as=&quot;geometry&quot; /&gt;&#10;        &lt;/mxCell&gt;&#10;        &lt;mxCell id=&quot;7c3a617817c5cf35-8&quot; value=&quot;2019&quot; style=&quot;verticalLabelPosition=bottom;verticalAlign=top;html=1;shape=mxgraph.infographic.shadedCube;isoAngle=15;fillColor=#AE4132;strokeColor=none;fontFamily=Helvetica;fontSize=20;align=center;strokeWidth=2;&quot; parent=&quot;1&quot; vertex=&quot;1&quot;&gt;&#10;          &lt;mxGeometry x=&quot;493&quot; y=&quot;365&quot; width=&quot;120&quot; height=&quot;190&quot; as=&quot;geometry&quot; /&gt;&#10;        &lt;/mxCell&gt;&#10;        &lt;mxCell id=&quot;7c3a617817c5cf35-9&quot; value=&quot;2020&quot; style=&quot;verticalLabelPosition=bottom;verticalAlign=top;html=1;shape=mxgraph.infographic.shadedCube;isoAngle=15;fillColor=#23445D;strokeColor=none;fontFamily=Helvetica;fontSize=20;align=center;strokeWidth=2;&quot; parent=&quot;1&quot; vertex=&quot;1&quot;&gt;&#10;          &lt;mxGeometry x=&quot;693&quot; y=&quot;274.9999999999999&quot; width=&quot;120&quot; height=&quot;280&quot; as=&quot;geometry&quot; /&gt;&#10;        &lt;/mxCell&gt;&#10;        &lt;mxCell id=&quot;7c3a617817c5cf35-10&quot; value=&quot;2021&quot; style=&quot;verticalLabelPosition=bottom;verticalAlign=top;html=1;shape=mxgraph.infographic.shadedCube;isoAngle=15;fillColor=#12AAB5;strokeColor=none;fontFamily=Helvetica;fontSize=20;align=center;strokeWidth=2;&quot; parent=&quot;1&quot; vertex=&quot;1&quot;&gt;&#10;          &lt;mxGeometry x=&quot;893&quot; y=&quot;184.99999999999986&quot; width=&quot;120&quot; height=&quot;370&quot; as=&quot;geometry&quot; /&gt;&#10;        &lt;/mxCell&gt;&#10;        &lt;mxCell id=&quot;7c3a617817c5cf35-11&quot; value=&quot;&amp;lt;h1&amp;gt;Heading&amp;lt;/h1&amp;gt;&amp;lt;p&amp;gt;Lorem ipsum dolor sit amet, consectetur adipisicing elit, sed do eiusmod tempor incididunt ut labore et dolore magna aliqua.&amp;lt;/p&amp;gt;&quot; style=&quot;text;html=1;spacing=5;spacingTop=-20;whiteSpace=wrap;overflow=hidden;strokeWidth=2;fillColor=none;gradientColor=none;fontSize=14;align=center;&quot; parent=&quot;1&quot; vertex=&quot;1&quot;&gt;&#10;          &lt;mxGeometry x=&quot;18&quot; y=&quot;655&quot; width=&quot;270&quot; height=&quot;140&quot; as=&quot;geometry&quot; /&gt;&#10;        &lt;/mxCell&gt;&#10;        &lt;mxCell id=&quot;7c3a617817c5cf35-12&quot; value=&quot;&amp;lt;h1&amp;gt;Heading&amp;lt;/h1&amp;gt;&amp;lt;p&amp;gt;Lorem ipsum dolor sit amet, consectetur adipisicing elit, sed do eiusmod tempor incididunt ut labore et dolore magna aliqua.&amp;lt;/p&amp;gt;&quot; style=&quot;text;html=1;spacing=5;spacingTop=-20;whiteSpace=wrap;overflow=hidden;strokeWidth=2;fillColor=none;gradientColor=none;fontSize=14;align=center;&quot; parent=&quot;1&quot; vertex=&quot;1&quot;&gt;&#10;          &lt;mxGeometry x=&quot;215&quot; y=&quot;205&quot; width=&quot;270&quot; height=&quot;140&quot; as=&quot;geometry&quot; /&gt;&#10;        &lt;/mxCell&gt;&#10;        &lt;mxCell id=&quot;7c3a617817c5cf35-13&quot; value=&quot;&amp;lt;h1&amp;gt;Heading&amp;lt;/h1&amp;gt;&amp;lt;p&amp;gt;Lorem ipsum dolor sit amet, consectetur adipisicing elit, sed do eiusmod tempor incididunt ut labore et dolore magna aliqua.&amp;lt;/p&amp;gt;&quot; style=&quot;text;html=1;spacing=5;spacingTop=-20;whiteSpace=wrap;overflow=hidden;strokeWidth=2;fillColor=none;gradientColor=none;fontSize=14;align=center;&quot; parent=&quot;1&quot; vertex=&quot;1&quot;&gt;&#10;          &lt;mxGeometry x=&quot;419&quot; y=&quot;655&quot; width=&quot;270&quot; height=&quot;140&quot; as=&quot;geometry&quot; /&gt;&#10;        &lt;/mxCell&gt;&#10;        &lt;mxCell id=&quot;7c3a617817c5cf35-14&quot; value=&quot;&amp;lt;h1&amp;gt;Heading&amp;lt;/h1&amp;gt;&amp;lt;p&amp;gt;Lorem ipsum dolor sit amet, consectetur adipisicing elit, sed do eiusmod tempor incididunt ut labore et dolore magna aliqua.&amp;lt;/p&amp;gt;&quot; style=&quot;text;html=1;spacing=5;spacingTop=-20;whiteSpace=wrap;overflow=hidden;strokeWidth=2;fillColor=none;gradientColor=none;fontSize=14;align=center;&quot; parent=&quot;1&quot; vertex=&quot;1&quot;&gt;&#10;          &lt;mxGeometry x=&quot;819&quot; y=&quot;655&quot; width=&quot;270&quot; height=&quot;140&quot; as=&quot;geometry&quot; /&gt;&#10;        &lt;/mxCell&gt;&#10;        &lt;mxCell id=&quot;7c3a617817c5cf35-15&quot; value=&quot;&amp;lt;h1&amp;gt;Heading&amp;lt;/h1&amp;gt;&amp;lt;p&amp;gt;Lorem ipsum dolor sit amet, consectetur adipisicing elit, sed do eiusmod tempor incididunt ut labore et dolore magna aliqua.&amp;lt;/p&amp;gt;&quot; style=&quot;text;html=1;spacing=5;spacingTop=-20;whiteSpace=wrap;overflow=hidden;strokeWidth=2;fillColor=none;gradientColor=none;fontSize=14;align=center;&quot; parent=&quot;1&quot; vertex=&quot;1&quot;&gt;&#10;          &lt;mxGeometry x=&quot;613&quot; y=&quot;55&quot; width=&quot;270&quot; height=&quot;140&quot; as=&quot;geometry&quot; /&gt;&#10;        &lt;/mxCell&gt;&#10;        &lt;mxCell id=&quot;7c3a617817c5cf35-18&quot; value=&quot;&quot; style=&quot;html=1;shadow=0;dashed=0;align=center;verticalAlign=middle;shape=mxgraph.arrows2.arrow;dy=0.6;dx=40;direction=north;notch=0;strokeWidth=2;fillColor=#CCCCCC;fontSize=14;fontColor=#000000;strokeColor=none;&quot; parent=&quot;1&quot; vertex=&quot;1&quot;&gt;&#10;          &lt;mxGeometry x=&quot;474&quot; y=&quot;595&quot; width=&quot;160&quot; height=&quot;60&quot; as=&quot;geometry&quot; /&gt;&#10;        &lt;/mxCell&gt;&#10;        &lt;mxCell id=&quot;7c3a617817c5cf35-19&quot; value=&quot;&quot; style=&quot;html=1;shadow=0;dashed=0;align=center;verticalAlign=middle;shape=mxgraph.arrows2.arrow;dy=0.6;dx=40;direction=north;notch=0;strokeWidth=2;fillColor=#CCCCCC;fontSize=14;fontColor=#000000;strokeColor=none;&quot; parent=&quot;1&quot; vertex=&quot;1&quot;&gt;&#10;          &lt;mxGeometry x=&quot;874&quot; y=&quot;595&quot; width=&quot;160&quot; height=&quot;60&quot; as=&quot;geometry&quot; /&gt;&#10;        &lt;/mxCell&gt;&#10;        &lt;mxCell id=&quot;7c3a617817c5cf35-20&quot; value=&quot;&quot; style=&quot;html=1;shadow=0;dashed=0;align=center;verticalAlign=middle;shape=mxgraph.arrows2.arrow;dy=0.6;dx=40;direction=north;notch=0;strokeWidth=2;fillColor=#CCCCCC;fontSize=14;fontColor=#000000;strokeColor=none;flipV=1;&quot; parent=&quot;1&quot; vertex=&quot;1&quot;&gt;&#10;          &lt;mxGeometry x=&quot;275&quot; y=&quot;340&quot; width=&quot;160&quot; height=&quot;60&quot; as=&quot;geometry&quot; /&gt;&#10;        &lt;/mxCell&gt;&#10;        &lt;mxCell id=&quot;7c3a617817c5cf35-21&quot; value=&quot;&quot; style=&quot;html=1;shadow=0;dashed=0;align=center;verticalAlign=middle;shape=mxgraph.arrows2.arrow;dy=0.6;dx=40;direction=north;notch=0;strokeWidth=2;fillColor=#CCCCCC;fontSize=14;fontColor=#000000;strokeColor=none;flipV=1;&quot; parent=&quot;1&quot; vertex=&quot;1&quot;&gt;&#10;          &lt;mxGeometry x=&quot;673&quot; y=&quot;195&quot; width=&quot;160&quot; height=&quot;60&quot; as=&quot;geometry&quot; /&gt;&#10;        &lt;/mxCell&gt;&#10;      &lt;/root&gt;&#10;    &lt;/mxGraphModel&gt;&#10;  &lt;/diagram&gt;&#10;&lt;/mxfile&gt;&#10;" resource="https://app.diagrams.net/?libs=general#Aaldalee%2Fdrow.io%2Fmain%2Fnotion%2F%E6%81%8B%E7%88%B1%E6%97%B6%E9%97%B4%E7%BA%BF.drawio.svg"><defs/><g><g data-cell-id="0"><g data-cell-id="1"><g data-cell-id="7c3a617817c5cf35-16"><g><path d="M 105 548 L 125 548 L 125 500 L 165 580 L 125 660 L 125 612 L 105 612 L 105 580 Z" fill="#cccccc" stroke="none" transform="rotate(270,135,580)" pointer-events="all"/></g></g><g data-cell-id="7c3a617817c5cf35-4"><g><path d="M 135 400 L 195 428.81 L 195 481.19 L 135 510 L 75 481.19 L 75 428.81 Z" fill="#10739e" stroke="none" pointer-events="all"/><path d="M 135 457.62 L 195 428.81 L 195 481.19 L 135 510 Z" fill-opacity="0.2" fill="#000000" stroke="none" pointer-events="all"/><path d="M 135 457.62 L 75 428.81 L 75 481.19 L 135 510 Z" fill-opacity="0.2" fill="#ffffff" stroke="none" pointer-events="all"/></g><g><g transform="translate(-0.5 -0.5)"><switch><foreignObject pointer-events="none" width="100%" height="100%" requiredFeatures="http://www.w3.org/TR/SVG11/feature#Extensibility" style="overflow: visible; text-align: left;"><div xmlns="http://www.w3.org/1999/xhtml" style="display: flex; align-items: unsafe flex-start; justify-content: unsafe center; width: 1px; height: 1px; padding-top: 517px; margin-left: 135px;"><div data-drawio-colors="color: rgb(0, 0, 0); " style="box-sizing: border-box; font-size: 0px; text-align: center;"><div style="display: inline-block; font-size: 20px; font-family: Helvetica; color: rgb(0, 0, 0); line-height: 1.2; pointer-events: all; white-space: nowrap;">2017</div></div></div></foreignObject><text x="135" y="537" fill="rgb(0, 0, 0)" font-family="&quot;Helvetica&quot;" font-size="20px" text-anchor="middle">2017</text></switch></g></g></g><g data-cell-id="7c3a617817c5cf35-7"><g><path d="M 335 370 L 395 398.81 L 395 481.19 L 335 510 L 275 481.19 L 275 398.81 Z" fill="#f2931e" stroke="none" pointer-events="all"/><path d="M 335 427.62 L 395 398.81 L 395 481.19 L 335 510 Z" fill-opacity="0.2" fill="#000000" stroke="none" pointer-events="all"/><path d="M 335 427.62 L 275 398.81 L 275 481.19 L 335 510 Z" fill-opacity="0.2" fill="#ffffff" stroke="none" pointer-events="all"/></g><g><g transform="translate(-0.5 -0.5)"><switch><foreignObject pointer-events="none" width="100%" height="100%" requiredFeatures="http://www.w3.org/TR/SVG11/feature#Extensibility" style="overflow: visible; text-align: left;"><div xmlns="http://www.w3.org/1999/xhtml" style="display: flex; align-items: unsafe flex-start; justify-content: unsafe center; width: 1px; height: 1px; padding-top: 517px; margin-left: 335px;"><div data-drawio-colors="color: rgb(0, 0, 0); " style="box-sizing: border-box; font-size: 0px; text-align: center;"><div style="display: inline-block; font-size: 20px; font-family: Helvetica; color: rgb(0, 0, 0); line-height: 1.2; pointer-events: all; white-space: nowrap;">2018</div></div></div></foreignObject><text x="335" y="537" fill="rgb(0, 0, 0)" font-family="&quot;Helvetica&quot;" font-size="20px" text-anchor="middle">2018</text></switch></g></g></g><g data-cell-id="7c3a617817c5cf35-8"><g><path d="M 535 320 L 595 348.81 L 595 481.19 L 535 510 L 475 481.19 L 475 348.81 Z" fill="#ae4132" stroke="none" pointer-events="all"/><path d="M 535 377.62 L 595 348.81 L 595 481.19 L 535 510 Z" fill-opacity="0.2" fill="#000000" stroke="none" pointer-events="all"/><path d="M 535 377.62 L 475 348.81 L 475 481.19 L 535 510 Z" fill-opacity="0.2" fill="#ffffff" stroke="none" pointer-events="all"/></g><g><g transform="translate(-0.5 -0.5)"><switch><foreignObject pointer-events="none" width="100%" height="100%" requiredFeatures="http://www.w3.org/TR/SVG11/feature#Extensibility" style="overflow: visible; text-align: left;"><div xmlns="http://www.w3.org/1999/xhtml" style="display: flex; align-items: unsafe flex-start; justify-content: unsafe center; width: 1px; height: 1px; padding-top: 517px; margin-left: 535px;"><div data-drawio-colors="color: rgb(0, 0, 0); " style="box-sizing: border-box; font-size: 0px; text-align: center;"><div style="display: inline-block; font-size: 20px; font-family: Helvetica; color: rgb(0, 0, 0); line-height: 1.2; pointer-events: all; white-space: nowrap;">2019</div></div></div></foreignObject><text x="535" y="537" fill="rgb(0, 0, 0)" font-family="&quot;Helvetica&quot;" font-size="20px" text-anchor="middle">2019</text></switch></g></g></g><g data-cell-id="7c3a617817c5cf35-9"><g><path d="M 735 230 L 795 258.81 L 795 481.19 L 735 510 L 675 481.19 L 675 258.81 Z" fill="#23445d" stroke="none" pointer-events="all"/><path d="M 735 287.62 L 795 258.81 L 795 481.19 L 735 510 Z" fill-opacity="0.2" fill="#000000" stroke="none" pointer-events="all"/><path d="M 735 287.62 L 675 258.81 L 675 481.19 L 735 510 Z" fill-opacity="0.2" fill="#ffffff" stroke="none" pointer-events="all"/></g><g><g transform="translate(-0.5 -0.5)"><switch><foreignObject pointer-events="none" width="100%" height="100%" requiredFeatures="http://www.w3.org/TR/SVG11/feature#Extensibility" style="overflow: visible; text-align: left;"><div xmlns="http://www.w3.org/1999/xhtml" style="display: flex; align-items: unsafe flex-start; justify-content: unsafe center; width: 1px; height: 1px; padding-top: 517px; margin-left: 735px;"><div data-drawio-colors="color: rgb(0, 0, 0); " style="box-sizing: border-box; font-size: 0px; text-align: center;"><div style="display: inline-block; font-size: 20px; font-family: Helvetica; color: rgb(0, 0, 0); line-height: 1.2; pointer-events: all; white-space: nowrap;">2020</div></div></div></foreignObject><text x="735" y="537" fill="rgb(0, 0, 0)" font-family="&quot;Helvetica&quot;" font-size="20px" text-anchor="middle">2020</text></switch></g></g></g><g data-cell-id="7c3a617817c5cf35-10"><g><path d="M 935 140 L 995 168.81 L 995 481.19 L 935 510 L 875 481.19 L 875 168.81 Z" fill="#12aab5" stroke="none" pointer-events="all"/><path d="M 935 197.62 L 995 168.81 L 995 481.19 L 935 510 Z" fill-opacity="0.2" fill="#000000" stroke="none" pointer-events="all"/><path d="M 935 197.62 L 875 168.81 L 875 481.19 L 935 510 Z" fill-opacity="0.2" fill="#ffffff" stroke="none" pointer-events="all"/></g><g><g transform="translate(-0.5 -0.5)"><switch><foreignObject pointer-events="none" width="100%" height="100%" requiredFeatures="http://www.w3.org/TR/SVG11/feature#Extensibility" style="overflow: visible; text-align: left;"><div xmlns="http://www.w3.org/1999/xhtml" style="display: flex; align-items: unsafe flex-start; justify-content: unsafe center; width: 1px; height: 1px; padding-top: 517px; margin-left: 935px;"><div data-drawio-colors="color: rgb(0, 0, 0); " style="box-sizing: border-box; font-size: 0px; text-align: center;"><div style="display: inline-block; font-size: 20px; font-family: Helvetica; color: rgb(0, 0, 0); line-height: 1.2; pointer-events: all; white-space: nowrap;">2021</div></div></div></foreignObject><text x="935" y="537" fill="rgb(0, 0, 0)" font-family="&quot;Helvetica&quot;" font-size="20px" text-anchor="middle">2021</text></switch></g></g></g><g data-cell-id="7c3a617817c5cf35-11"><g><rect x="0" y="610" width="270" height="140" fill="none" stroke="none" pointer-events="all"/></g><g><g transform="translate(-0.5 -0.5)"><switch><foreignObject pointer-events="none" width="100%" height="100%" requiredFeatures="http://www.w3.org/TR/SVG11/feature#Extensibility" style="overflow: visible; text-align: left;"><div xmlns="http://www.w3.org/1999/xhtml" style="display: flex; align-items: unsafe flex-start; justify-content: unsafe center; width: 262px; height: 1px; padding-top: 600px; margin-left: 4px;"><div data-drawio-colors="color: rgb(0, 0, 0); " style="box-sizing: border-box; font-size: 0px; text-align: center; max-height: 150px; overflow: hidden;"><div style="display: inline-block; font-size: 14px; font-family: Helvetica; color: rgb(0, 0, 0); line-height: 1.2; pointer-events: all; white-space: normal; overflow-wrap: normal;"><h1>Heading</h1><p>Lorem ipsum dolor sit amet, consectetur adipisicing elit, sed do eiusmod tempor incididunt ut labore et dolore magna aliqua.</p></div></div></div></foreignObject><text x="135" y="614" fill="rgb(0, 0, 0)" font-family="&quot;Helvetica&quot;" font-size="14px" text-anchor="middle">Heading...</text></switch></g></g></g><g data-cell-id="7c3a617817c5cf35-12"><g><rect x="197" y="160" width="270" height="140" fill="none" stroke="none" pointer-events="all"/></g><g><g transform="translate(-0.5 -0.5)"><switch><foreignObject pointer-events="none" width="100%" height="100%" requiredFeatures="http://www.w3.org/TR/SVG11/feature#Extensibility" style="overflow: visible; text-align: left;"><div xmlns="http://www.w3.org/1999/xhtml" style="display: flex; align-items: unsafe flex-start; justify-content: unsafe center; width: 262px; height: 1px; padding-top: 150px; margin-left: 201px;"><div data-drawio-colors="color: rgb(0, 0, 0); " style="box-sizing: border-box; font-size: 0px; text-align: center; max-height: 150px; overflow: hidden;"><div style="display: inline-block; font-size: 14px; font-family: Helvetica; color: rgb(0, 0, 0); line-height: 1.2; pointer-events: all; white-space: normal; overflow-wrap: normal;"><h1>Heading</h1><p>Lorem ipsum dolor sit amet, consectetur adipisicing elit, sed do eiusmod tempor incididunt ut labore et dolore magna aliqua.</p></div></div></div></foreignObject><text x="332" y="164" fill="rgb(0, 0, 0)" font-family="&quot;Helvetica&quot;" font-size="14px" text-anchor="middle">Heading...</text></switch></g></g></g><g data-cell-id="7c3a617817c5cf35-13"><g><rect x="401" y="610" width="270" height="140" fill="none" stroke="none" pointer-events="all"/></g><g><g transform="translate(-0.5 -0.5)"><switch><foreignObject pointer-events="none" width="100%" height="100%" requiredFeatures="http://www.w3.org/TR/SVG11/feature#Extensibility" style="overflow: visible; text-align: left;"><div xmlns="http://www.w3.org/1999/xhtml" style="display: flex; align-items: unsafe flex-start; justify-content: unsafe center; width: 262px; height: 1px; padding-top: 600px; margin-left: 405px;"><div data-drawio-colors="color: rgb(0, 0, 0); " style="box-sizing: border-box; font-size: 0px; text-align: center; max-height: 150px; overflow: hidden;"><div style="display: inline-block; font-size: 14px; font-family: Helvetica; color: rgb(0, 0, 0); line-height: 1.2; pointer-events: all; white-space: normal; overflow-wrap: normal;"><h1>Heading</h1><p>Lorem ipsum dolor sit amet, consectetur adipisicing elit, sed do eiusmod tempor incididunt ut labore et dolore magna aliqua.</p></div></div></div></foreignObject><text x="536" y="614" fill="rgb(0, 0, 0)" font-family="&quot;Helvetica&quot;" font-size="14px" text-anchor="middle">Heading...</text></switch></g></g></g><g data-cell-id="7c3a617817c5cf35-14"><g><rect x="801" y="610" width="270" height="140" fill="none" stroke="none" pointer-events="all"/></g><g><g transform="translate(-0.5 -0.5)"><switch><foreignObject pointer-events="none" width="100%" height="100%" requiredFeatures="http://www.w3.org/TR/SVG11/feature#Extensibility" style="overflow: visible; text-align: left;"><div xmlns="http://www.w3.org/1999/xhtml" style="display: flex; align-items: unsafe flex-start; justify-content: unsafe center; width: 262px; height: 1px; padding-top: 600px; margin-left: 805px;"><div data-drawio-colors="color: rgb(0, 0, 0); " style="box-sizing: border-box; font-size: 0px; text-align: center; max-height: 150px; overflow: hidden;"><div style="display: inline-block; font-size: 14px; font-family: Helvetica; color: rgb(0, 0, 0); line-height: 1.2; pointer-events: all; white-space: normal; overflow-wrap: normal;"><h1>Heading</h1><p>Lorem ipsum dolor sit amet, consectetur adipisicing elit, sed do eiusmod tempor incididunt ut labore et dolore magna aliqua.</p></div></div></div></foreignObject><text x="936" y="614" fill="rgb(0, 0, 0)" font-family="&quot;Helvetica&quot;" font-size="14px" text-anchor="middle">Heading...</text></switch></g></g></g><g data-cell-id="7c3a617817c5cf35-15"><g><rect x="595" y="10" width="270" height="140" fill="none" stroke="none" pointer-events="all"/></g><g><g transform="translate(-0.5 -0.5)"><switch><foreignObject pointer-events="none" width="100%" height="100%" requiredFeatures="http://www.w3.org/TR/SVG11/feature#Extensibility" style="overflow: visible; text-align: left;"><div xmlns="http://www.w3.org/1999/xhtml" style="display: flex; align-items: unsafe flex-start; justify-content: unsafe center; width: 262px; height: 1px; padding-top: 0px; margin-left: 599px;"><div data-drawio-colors="color: rgb(0, 0, 0); " style="box-sizing: border-box; font-size: 0px; text-align: center; max-height: 150px; overflow: hidden;"><div style="display: inline-block; font-size: 14px; font-family: Helvetica; color: rgb(0, 0, 0); line-height: 1.2; pointer-events: all; white-space: normal; overflow-wrap: normal;"><h1>Heading</h1><p>Lorem ipsum dolor sit amet, consectetur adipisicing elit, sed do eiusmod tempor incididunt ut labore et dolore magna aliqua.</p></div></div></div></foreignObject><text x="730" y="14" fill="rgb(0, 0, 0)" font-family="&quot;Helvetica&quot;" font-size="14px" text-anchor="middle">Heading...</text></switch></g></g></g><g data-cell-id="7c3a617817c5cf35-18"><g><path d="M 506 548 L 526 548 L 526 500 L 566 580 L 526 660 L 526 612 L 506 612 L 506 580 Z" fill="#cccccc" stroke="none" transform="rotate(270,536,580)" pointer-events="all"/></g></g><g data-cell-id="7c3a617817c5cf35-19"><g><path d="M 906 548 L 926 548 L 926 500 L 966 580 L 926 660 L 926 612 L 906 612 L 906 580 Z" fill="#cccccc" stroke="none" transform="rotate(270,936,580)" pointer-events="all"/></g></g><g data-cell-id="7c3a617817c5cf35-20"><g><path d="M 307 293 L 327 293 L 327 245 L 367 325 L 327 405 L 327 357 L 307 357 L 307 325 Z" fill="#cccccc" stroke="none" transform="translate(337,0)scale(-1,1)translate(-337,0)rotate(-270,337,325)" pointer-events="all"/></g></g><g data-cell-id="7c3a617817c5cf35-21"><g><path d="M 705 148 L 725 148 L 725 100 L 765 180 L 725 260 L 725 212 L 705 212 L 705 180 Z" fill="#cccccc" stroke="none" transform="translate(735,0)scale(-1,1)translate(-735,0)rotate(-270,735,180)" pointer-events="all"/></g></g></g></g></g><switch><g requiredFeatures="http://www.w3.org/TR/SVG11/feature#Extensibility"/><a transform="translate(0,-5)" xlink:href="https://www.drawio.com/doc/faq/svg-export-text-problems" target="_blank"><text text-anchor="middle" font-size="10px" x="50%" y="100%">Text is not SVG - cannot display</text></a></switch></svg>